{
    "AE model-HIDDEN-8-1": {
        "model_configuration": {
            "hyperparameters": {
                "batch_size": 16,
                "dropout": 0.029460018381867015,
                "epochs": 9,
                "input_dim": 41,
                "layers": [
                    163,
                    153,
                    119,
                    17,
                    66,
                    114
                ],
                "learning_rate": 0.00025001103826179306
            },
            "model_path": "../../models/AE-8-hidden/1/13a6f2a6-b875-489a-a24f-57cf46278463.pt",
            "threshold": 0.038019999861717224
        },
        "test_metrics": {
            "auc_score": 0.9496474169310933,
            "f1_score": 0.8748768472906404,
            "mcc_score": 0.8767301921149165,
            "precision": 0.9786921381337252,
            "recall": 0.7909738717339667
        },
        "val_metrics": {
            "f1_score": 0.8706485892268231,
            "mcc_score": 0.8728045452947513,
            "precision": 0.9785831960461285,
            "recall": 0.7841584158415842
        }
    },
    "AE model-HIDDEN-8-10": {
        "model_configuration": {
            "hyperparameters": {
                "batch_size": 64,
                "dropout": 0.056443265073737814,
                "epochs": 5,
                "input_dim": 41,
                "layers": [
                    178,
                    70,
                    168
                ],
                "learning_rate": 0.0018770221074938807
            },
            "model_path": "../../models/AE-8-hidden/10/4f5216d2-e108-46dd-87d9-3cc8c2e06865.pt",
            "threshold": 0.10814628005027771
        },
        "test_metrics": {
            "auc_score": 0.906392114701868,
            "f1_score": 0.7426942266571632,
            "mcc_score": 0.7525199514729652,
            "precision": 0.928698752228164,
            "recall": 0.6187648456057007
        },
        "val_metrics": {
            "f1_score": 0.7338129496402878,
            "mcc_score": 0.745113040657313,
            "precision": 0.9300911854103343,
            "recall": 0.6059405940594059
        }
    },
    "AE model-HIDDEN-8-2": {
        "model_configuration": {
            "hyperparameters": {
                "batch_size": 8,
                "dropout": 0.10476397782253988,
                "epochs": 5,
                "input_dim": 41,
                "layers": [
                    200,
                    198,
                    115,
                    76,
                    55,
                    80,
                    81,
                    95
                ],
                "learning_rate": 0.00014427253854085184
            },
            "model_path": "../../models/AE-8-hidden/2/afb8f763-4b19-47d9-8a35-45504424d1c8.pt",
            "threshold": 0.11765056103467941
        },
        "test_metrics": {
            "auc_score": 0.9509377503964324,
            "f1_score": 0.8745720510426394,
            "mcc_score": 0.8720504791297341,
            "precision": 0.9189012426422498,
            "recall": 0.8343230403800475
        },
        "val_metrics": {
            "f1_score": 0.869352014010508,
            "mcc_score": 0.8673852380866462,
            "precision": 0.9261194029850747,
            "recall": 0.8191419141914191
        }
    },
    "AE model-HIDDEN-8-3": {
        "model_configuration": {
            "hyperparameters": {
                "batch_size": 64,
                "dropout": 0.056443265073737814,
                "epochs": 5,
                "input_dim": 41,
                "layers": [
                    178,
                    70,
                    168
                ],
                "learning_rate": 0.0018770221074938807
            },
            "model_path": "../../models/AE-8-hidden/3/731878e2-16ee-4d3c-acfe-dbe9502c682a.pt",
            "threshold": 0.00044164559221826494
        },
        "test_metrics": {
            "auc_score": 0.9963693620951495,
            "f1_score": 0.864476386036961,
            "mcc_score": 0.868390027265539,
            "precision": 0.7613019891500904,
            "recall": 1.0
        },
        "val_metrics": {
            "f1_score": 0.8694404591104735,
            "mcc_score": 0.8729667114361218,
            "precision": 0.7690355329949239,
            "recall": 1.0
        }
    },
    "AE model-HIDDEN-8-4": {
        "model_configuration": {
            "hyperparameters": {
                "batch_size": 8,
                "dropout": 0.016214300588604458,
                "epochs": 8,
                "input_dim": 41,
                "layers": [
                    191,
                    142,
                    88,
                    60,
                    68,
                    191
                ],
                "learning_rate": 0.0004332461318343051
            },
            "model_path": "../../models/AE-8-hidden/4/2e028fb0-9b0f-4f4e-823d-928cd7d8ec81.pt",
            "threshold": 0.006483720149844885
        },
        "test_metrics": {
            "auc_score": 0.9364559089739145,
            "f1_score": 0.6942087790483217,
            "mcc_score": 0.7094039364361284,
            "precision": 0.9162609542356378,
            "recall": 0.5587885985748219
        },
        "val_metrics": {
            "f1_score": 0.6764336542486395,
            "mcc_score": 0.6960257971249952,
            "precision": 0.9244851258581236,
            "recall": 0.5333333333333333
        }
    },
    "AE model-HIDDEN-8-5": {
        "model_configuration": {
            "hyperparameters": {
                "batch_size": 128,
                "dropout": 0.05360284781729158,
                "epochs": 4,
                "input_dim": 41,
                "layers": [
                    191,
                    190,
                    20,
                    100,
                    102,
                    123
                ],
                "learning_rate": 0.009767781100894882
            },
            "model_path": "../../models/AE-8-hidden/5/70274874-18c5-4a63-8741-eec975fa58d3.pt",
            "threshold": 0.01188786793500185
        },
        "test_metrics": {
            "auc_score": 0.9420693579209449,
            "f1_score": 0.8694617900683913,
            "mcc_score": 0.865530919213973,
            "precision": 0.8707564026206075,
            "recall": 0.8681710213776722
        },
        "val_metrics": {
            "f1_score": 0.8662251655629137,
            "mcc_score": 0.8622100056556097,
            "precision": 0.8691029900332226,
            "recall": 0.8633663366336634
        }
    },
    "AE model-HIDDEN-8-6": {
        "model_configuration": {
            "hyperparameters": {
                "batch_size": 8,
                "dropout": 0.016214300588604458,
                "epochs": 8,
                "input_dim": 41,
                "layers": [
                    191,
                    142,
                    88,
                    60,
                    68,
                    191
                ],
                "learning_rate": 0.0004332461318343051
            },
            "model_path": "../../models/AE-8-hidden/6/e12ff3e5-3a88-4696-b1ef-3923200b02a6.pt",
            "threshold": 0.02760482020676136
        },
        "test_metrics": {
            "auc_score": 0.9785397425770961,
            "f1_score": 0.8736071314867877,
            "mcc_score": 0.8724883624408336,
            "precision": 0.9416609471516816,
            "recall": 0.8147268408551069
        },
        "val_metrics": {
            "f1_score": 0.8624508753126117,
            "mcc_score": 0.861759469390393,
            "precision": 0.9400311526479751,
            "recall": 0.7966996699669967
        }
    },
    "AE model-HIDDEN-8-7": {
        "model_configuration": {
            "hyperparameters": {
                "batch_size": 8,
                "dropout": 0.016214300588604458,
                "epochs": 8,
                "input_dim": 41,
                "layers": [
                    191,
                    142,
                    88,
                    60,
                    68,
                    191
                ],
                "learning_rate": 0.0004332461318343051
            },
            "model_path": "../../models/AE-8-hidden/7/4993fb43-023c-49a4-8f0a-66ffd19fc576.pt",
            "threshold": 0.12099514156579971
        },
        "test_metrics": {
            "auc_score": 0.9729136720861403,
            "f1_score": 0.8455832771409305,
            "mcc_score": 0.8498293063198926,
            "precision": 0.9781591263650546,
            "recall": 0.7446555819477435
        },
        "val_metrics": {
            "f1_score": 0.8402411454408439,
            "mcc_score": 0.8450952236626113,
            "precision": 0.9789288849868305,
            "recall": 0.735973597359736
        }
    },
    "AE model-HIDDEN-8-8": {
        "model_configuration": {
            "hyperparameters": {
                "batch_size": 8,
                "dropout": 0.016214300588604458,
                "epochs": 8,
                "input_dim": 41,
                "layers": [
                    191,
                    142,
                    88,
                    60,
                    68,
                    191
                ],
                "learning_rate": 0.0004332461318343051
            },
            "model_path": "../../models/AE-8-hidden/8/925aa8e5-8a6a-493f-a5c0-79310bb1aafb.pt",
            "threshold": 0.03182964399456978
        },
        "test_metrics": {
            "auc_score": 0.9774286637570915,
            "f1_score": 0.8170478170478169,
            "mcc_score": 0.8246467979426085,
            "precision": 0.980865224625624,
            "recall": 0.7001187648456056
        },
        "val_metrics": {
            "f1_score": 0.8393194706994328,
            "mcc_score": 0.8446635291893151,
            "precision": 0.9823008849557522,
            "recall": 0.7326732673267327
        }
    },
    "AE model-HIDDEN-8-9": {
        "model_configuration": {
            "hyperparameters": {
                "batch_size": 8,
                "dropout": 0.016214300588604458,
                "epochs": 8,
                "input_dim": 41,
                "layers": [
                    191,
                    142,
                    88,
                    60,
                    68,
                    191
                ],
                "learning_rate": 0.0004332461318343051
            },
            "model_path": "../../models/AE-8-hidden/9/1b4f8479-2a53-4bb8-ac48-84257fdbdb0a.pt",
            "threshold": 0.048428624868392944
        },
        "test_metrics": {
            "auc_score": 0.9499961396053177,
            "f1_score": 0.8634446967239701,
            "mcc_score": 0.8636196085901323,
            "precision": 0.9513938527519656,
            "recall": 0.7903800475059383
        },
        "val_metrics": {
            "f1_score": 0.8640988372093025,
            "mcc_score": 0.8650942888098864,
            "precision": 0.9611964430072757,
            "recall": 0.7848184818481848
        }
    }
}